somador/simulation/qsim/somador.msim.vcd
$comment
	File created using the following command:
		vcd file somador.msim.vcd -direction
$end
$date
	Sun Jul 21 19:49:31 2024
$end
$version
	ModelSim Version 10.5b
$end
$timescale
	1ps
$end

$scope module somador_vhd_vec_tst $end
$var wire 1 ! a [3] $end
$var wire 1 " a [2] $end
$var wire 1 # a [1] $end
$var wire 1 $ a [0] $end
$var wire 1 % b [3] $end
$var wire 1 & b [2] $end
$var wire 1 ' b [1] $end
$var wire 1 ( b [0] $end
$var wire 1 ) z [3] $end
$var wire 1 * z [2] $end
$var wire 1 + z [1] $end
$var wire 1 , z [0] $end

$scope module i1 $end
$var wire 1 - gnd $end
$var wire 1 . vcc $end
$var wire 1 / unknown $end
$var wire 1 0 devoe $end
$var wire 1 1 devclrn $end
$var wire 1 2 devpor $end
$var wire 1 3 ww_devoe $end
$var wire 1 4 ww_devclrn $end
$var wire 1 5 ww_devpor $end
$var wire 1 6 ww_a [3] $end
$var wire 1 7 ww_a [2] $end
$var wire 1 8 ww_a [1] $end
$var wire 1 9 ww_a [0] $end
$var wire 1 : ww_b [3] $end
$var wire 1 ; ww_b [2] $end
$var wire 1 < ww_b [1] $end
$var wire 1 = ww_b [0] $end
$var wire 1 > ww_z [3] $end
$var wire 1 ? ww_z [2] $end
$var wire 1 @ ww_z [1] $end
$var wire 1 A ww_z [0] $end
$var wire 1 B \z[0]~output_o\ $end
$var wire 1 C \z[1]~output_o\ $end
$var wire 1 D \z[2]~output_o\ $end
$var wire 1 E \z[3]~output_o\ $end
$var wire 1 F \b[0]~input_o\ $end
$var wire 1 G \a[0]~input_o\ $end
$var wire 1 H \Add0~0_combout\ $end
$var wire 1 I \b[1]~input_o\ $end
$var wire 1 J \a[1]~input_o\ $end
$var wire 1 K \Add0~1\ $end
$var wire 1 L \Add0~2_combout\ $end
$var wire 1 M \b[2]~input_o\ $end
$var wire 1 N \a[2]~input_o\ $end
$var wire 1 O \Add0~3\ $end
$var wire 1 P \Add0~4_combout\ $end
$var wire 1 Q \b[3]~input_o\ $end
$var wire 1 R \a[3]~input_o\ $end
$var wire 1 S \Add0~5\ $end
$var wire 1 T \Add0~6_combout\ $end
$upscope $end
$upscope $end
$enddefinitions $end
#0
$dumpvars
0-
1.
x/
10
11
12
13
14
15
0B
0C
0D
0E
0F
0G
0H
0I
0J
0K
0L
0M
0N
1O
0P
0Q
0R
0S
0T
0!
0"
0#
0$
0%
0&
0'
0(
0)
0*
0+
0,
06
07
08
09
0:
0;
0<
0=
0>
0?
0@
0A
$end
#10000
1$
19
1G
1H
1B
1A
1,
#20000
0$
1#
09
18
1J
0G
0H
1L
1C
0B
1@
0A
0,
1+
#30000
1$
19
1G
1H
1B
1A
1,
#40000
0$
0#
1"
09
08
17
1N
0J
0G
0H
0L
1P
1D
0C
0B
1?
0@
0A
0,
0+
1*
#50000
1$
19
1G
1H
1B
1A
1,
#60000
0$
1#
09
18
1J
0G
0H
1L
1C
0B
1@
0A
0,
1+
#70000
1$
19
1G
1H
1B
1A
1,
#80000
0$
0#
0"
1!
09
08
07
16
1R
0N
0J
0G
0H
0L
0P
1T
1E
0D
0C
0B
1>
0?
0@
0A
0,
0+
0*
1)
#90000
1$
19
1G
1H
1B
1A
1,
#100000
0$
1#
09
18
1J
0G
0H
1L
1C
0B
1@
0A
0,
1+
#110000
1$
19
1G
1H
1B
1A
1,
#120000
0$
0#
1"
09
08
17
1N
0J
0G
0H
0L
1P
1D
0C
0B
1?
0@
0A
0,
0+
1*
#130000
1$
19
1G
1H
1B
1A
1,
#140000
0$
1#
09
18
1J
0G
0H
1L
1C
0B
1@
0A
0,
1+
#150000
1$
19
1G
1H
1B
1A
1,
#160000
0$
0#
0"
0!
1(
09
08
07
06
1=
1F
0R
0N
0J
0G
0L
0P
0T
0E
0D
0C
0>
0?
0@
0+
0*
0)
#170000
1$
19
1G
0H
1K
0B
1L
0A
1C
0,
1@
1+
#180000
0$
1#
09
18
1J
0G
1H
0K
0L
0O
0C
1B
1P
1L
1O
0@
1A
1C
1D
0P
1,
0+
1@
1?
0D
1+
1*
0?
0*
#190000
1$
19
1G
0H
1K
0B
0L
0O
0A
0C
1P
0,
0@
1D
0+
1?
1*
#200000
0$
0#
1"
09
08
17
1N
0J
0G
1H
0K
1L
1O
0P
1S
0D
1C
1B
1T
1P
0S
0L
0?
1@
1A
0C
1D
1E
0T
1,
1+
0*
0@
1?
1>
0E
0+
1*
1)
0>
0)
#210000
1$
19
1G
0H
1K
0B
1L
0A
1C
0,
1@
1+
#220000
0$
1#
09
18
1J
0G
1H
0K
0L
0O
0C
1B
0P
1S
1L
1O
0@
1A
1C
0D
1P
0S
1T
1,
0+
1@
0?
1E
1D
0T
1+
0*
1>
1?
0E
1*
1)
0>
0)
#230000
1$
19
1G
0H
1K
0B
0L
0O
0A
0C
0P
1S
0,
0@
0D
1T
0+
0?
1E
0*
1>
1)
#240000
0$
0#
0"
1!
09
08
07
16
1R
0N
0J
0G
1H
0K
1L
1O
1P
0S
0T
0E
1D
1C
1B
1T
0P
0L
0>
1?
1@
1A
0C
0D
1E
1,
1+
1*
0)
0@
0?
1>
0+
0*
1)
#250000
1$
19
1G
0H
1K
0B
1L
0A
1C
0,
1@
1+
#260000
0$
1#
09
18
1J
0G
1H
0K
0L
0O
0C
1B
1P
1L
1O
0@
1A
1C
1D
0P
1,
0+
1@
1?
0D
1+
1*
0?
0*
#270000
1$
19
1G
0H
1K
0B
0L
0O
0A
0C
1P
0,
0@
1D
0+
1?
1*
#280000
0$
0#
1"
09
08
17
1N
0J
0G
1H
0K
1L
1O
0P
1S
0D
1C
1B
0T
1P
0S
0L
0?
1@
1A
0C
1D
0E
1T
1,
1+
0*
0@
1?
0>
1E
0+
1*
0)
1>
1)
#290000
1$
19
1G
0H
1K
0B
1L
0A
1C
0,
1@
1+
#300000
0$
1#
09
18
1J
0G
1H
0K
0L
0O
0C
1B
0P
1S
1L
1O
0@
1A
1C
0D
1P
0S
0T
1,
0+
1@
0?
0E
1D
1T
1+
0*
0>
1?
1E
1*
0)
1>
1)
#310000
1$
19
1G
0H
1K
0B
0L
0O
0A
0C
0P
1S
0,
0@
0D
0T
0+
0?
0E
0*
0>
0)
#320000
0$
0#
0"
0!
0(
1'
09
08
07
06
0=
1<
1I
0F
0R
0N
0J
0G
1P
0S
1T
0K
1E
1D
1L
1O
0T
1>
1?
0E
1C
0P
1*
1)
0>
1@
0D
1+
0)
0?
0*
#330000
1$
19
1G
1H
1B
1A
1,
#340000
0$
1#
09
18
1J
0G
0H
0L
0O
0C
0B
1P
0@
0A
1D
0,
0+
1?
1*
#350000
1$
19
1G
1H
1B
1A
1,
#360000
0$
0#
1"
09
08
17
1N
0J
0G
0H
1L
1O
0P
1S
0D
1C
0B
1T
1P
0S
0?
1@
0A
1D
1E
0T
0,
1+
0*
1?
1>
0E
1*
1)
0>
0)
#370000
1$
19
1G
1H
1B
1A
1,
#380000
0$
1#
09
18
1J
0G
0H
0L
0O
0C
0B
0P
1S
0@
0A
0D
1T
0,
0+
0?
1E
0*
1>
1)
#390000
1$
19
1G
1H
1B
1A
1,
#400000
0$
0#
0"
1!
09
08
07
16
1R
0N
0J
0G
0H
1L
1O
1P
0S
0T
0E
1D
1C
0B
1T
0P
0>
1?
1@
0A
0D
1E
0,
1+
1*
0)
0?
1>
0*
1)
#410000
1$
19
1G
1H
1B
1A
1,
#420000
0$
1#
09
18
1J
0G
0H
0L
0O
0C
0B
1P
0@
0A
1D
0,
0+
1?
1*
#430000
1$
19
1G
1H
1B
1A
1,
#440000
0$
0#
1"
09
08
17
1N
0J
0G
0H
1L
1O
0P
1S
0D
1C
0B
0T
1P
0S
0?
1@
0A
1D
0E
1T
0,
1+
0*
1?
0>
1E
1*
0)
1>
1)
#450000
1$
19
1G
1H
1B
1A
1,
#460000
0$
1#
09
18
1J
0G
0H
0L
0O
0C
0B
0P
1S
0@
0A
0D
0T
0,
0+
0?
0E
0*
0>
0)
#470000
1$
19
1G
1H
1B
1A
1,
#480000
0$
0#
0"
0!
1(
09
08
07
06
1=
1F
0R
0N
0J
0G
1L
1O
1P
0S
1T
1E
1D
1C
0T
0P
1>
1?
1@
0D
0E
1+
1*
1)
0?
0>
0*
0)
#490000
1$
19
1G
0H
1K
0B
0L
0O
0A
0C
1P
0,
0@
1D
0+
1?
1*
#500000
0$
1#
09
18
1J
0G
1H
0K
1L
1C
1B
0L
1@
1A
0C
1,
1+
0@
0+
#510000
1$
19
1G
0H
1K
0B
1L
0A
1C
0,
1@
1+
#520000
0$
0#
1"
09
08
17
1N
0J
0G
1H
0K
0L
0P
1S
0D
0C
1B
1T
1L
1O
0?
0@
1A
1C
1E
1P
0S
1,
0+
0*
1@
1>
1D
0T
1+
1)
1?
0E
1*
0>
0)
#530000
1$
19
1G
0H
1K
0B
0L
0O
0A
0C
0P
1S
0,
0@
0D
1T
0+
0?
1E
0*
1>
1)
#540000
0$
1#
09
18
1J
0G
1H
0K
1L
1C
1B
0L
1@
1A
0C
1,
1+
0@
0+
#550000
1$
19
1G
0H
1K
0B
1L
0A
1C
0,
1@
1+
#560000
0$
0#
0"
1!
09
08
07
16
1R
0N
0J
0G
1H
0K
0L
1P
0S
0T
0E
1D
0C
1B
1T
1L
1O
0>
1?
0@
1A
1C
1E
0P
1,
0+
1*
0)
1@
1>
0D
1+
1)
0?
0*
#570000
1$
19
1G
0H
1K
0B
0L
0O
0A
0C
1P
0,
0@
1D
0+
1?
1*
#580000
0$
1#
09
18
1J
0G
1H
0K
1L
1C
1B
0L
1@
1A
0C
1,
1+
0@
0+
#590000
1$
19
1G
0H
1K
0B
1L
0A
1C
0,
1@
1+
#600000
0$
0#
1"
09
08
17
1N
0J
0G
1H
0K
0L
0P
1S
0D
0C
1B
0T
1L
1O
0?
0@
1A
1C
0E
1P
0S
1,
0+
0*
1@
0>
1D
1T
1+
0)
1?
1E
1*
1>
1)
#610000
1$
19
1G
0H
1K
0B
0L
0O
0A
0C
0P
1S
0,
0@
0D
0T
0+
0?
0E
0*
0>
0)
#620000
0$
1#
09
18
1J
0G
1H
0K
1L
1C
1B
0L
1@
1A
0C
1,
1+
0@
0+
#630000
1$
19
1G
0H
1K
0B
1L
0A
1C
0,
1@
1+
#640000
0$
0#
0"
0!
0(
0'
1&
09
08
07
06
0=
0<
1;
1M
0I
0F
0R
0N
0J
0G
1T
0K
1O
1E
1P
0S
0L
1>
0C
1D
0T
1)
0@
1?
0E
0+
1*
0>
0)
#650000
1$
19
1G
1H
1B
1A
1,
#660000
0$
1#
09
18
1J
0G
0H
1L
1C
0B
1@
0A
0,
1+
#670000
1$
19
1G
1H
1B
1A
1,
#680000
0$
0#
1"
09
08
17
1N
0J
0G
0H
0L
0P
1S
0D
0C
0B
1T
0?
0@
0A
1E
0,
0+
0*
1>
1)
#690000
1$
19
1G
1H
1B
1A
1,
#700000
0$
1#
09
18
1J
0G
0H
1L
1C
0B
1@
0A
0,
1+
#710000
1$
19
1G
1H
1B
1A
1,
#720000
0$
0#
0"
1!
09
08
07
16
1R
0N
0J
0G
0H
0L
1P
0S
0T
0E
1D
0C
0B
1T
0>
1?
0@
0A
1E
0,
0+
1*
0)
1>
1)
#730000
1$
19
1G
1H
1B
1A
1,
#740000
0$
1#
09
18
1J
0G
0H
1L
1C
0B
1@
0A
0,
1+
#750000
1$
19
1G
1H
1B
1A
1,
#760000
0$
0#
1"
09
08
17
1N
0J
0G
0H
0L
0P
1S
0D
0C
0B
0T
0?
0@
0A
0E
0,
0+
0*
0>
0)
#770000
1$
19
1G
1H
1B
1A
1,
#780000
0$
1#
09
18
1J
0G
0H
1L
1C
0B
1@
0A
0,
1+
#790000
1$
19
1G
1H
1B
1A
1,
#800000
0$
0#
0"
0!
1(
09
08
07
06
1=
1F
0R
0N
0J
0G
0L
1P
0S
1T
1E
1D
0C
0T
1>
1?
0@
0E
0+
1*
1)
0>
0)
#810000
1$
19
1G
0H
1K
0B
1L
0A
1C
0,
1@
1+
#820000
0$
1#
09
18
1J
0G
1H
0K
0L
0O
0C
1B
0P
1S
1L
1O
0@
1A
1C
0D
1P
0S
1T
1,
0+
1@
0?
1E
1D
0T
1+
0*
1>
1?
0E
1*
1)
0>
0)
#830000
1$
19
1G
0H
1K
0B
0L
0O
0A
0C
0P
1S
0,
0@
0D
1T
0+
0?
1E
0*
1>
1)
#840000
0$
0#
1"
09
08
17
1N
0J
0G
1H
0K
1L
1O
1P
1D
1C
1B
0P
0L
1?
1@
1A
0C
0D
1,
1+
1*
0@
0?
0+
0*
#850000
1$
19
1G
0H
1K
0B
1L
0A
1C
0,
1@
1+
#860000
0$
1#
09
18
1J
0G
1H
0K
0L
0O
0C
1B
1P
1L
1O
0@
1A
1C
1D
0P
1,
0+
1@
1?
0D
1+
1*
0?
0*
#870000
1$
19
1G
0H
1K
0B
0L
0O
0A
0C
1P
0,
0@
1D
0+
1?
1*
#880000
0$
0#
0"
1!
09
08
07
16
1R
0N
0J
0G
1H
0K
1L
1O
0P
0T
0E
0D
1C
1B
1P
0S
0L
0>
0?
1@
1A
0C
1D
1T
1,
1+
0*
0)
0@
1?
1E
0+
1*
1>
1)
#890000
1$
19
1G
0H
1K
0B
1L
0A
1C
0,
1@
1+
#900000
0$
1#
09
18
1J
0G
1H
0K
0L
0O
0C
1B
0P
1S
1L
1O
0@
1A
1C
0D
1P
0S
0T
1,
0+
1@
0?
0E
1D
1T
1+
0*
0>
1?
1E
1*
0)
1>
1)
#910000
1$
19
1G
0H
1K
0B
0L
0O
0A
0C
0P
1S
0,
0@
0D
0T
0+
0?
0E
0*
0>
0)
#920000
0$
0#
1"
09
08
17
1N
0J
0G
1H
0K
1L
1O
1P
1D
1C
1B
0P
0L
1?
1@
1A
0C
0D
1,
1+
1*
0@
0?
0+
0*
#930000
1$
19
1G
0H
1K
0B
1L
0A
1C
0,
1@
1+
#940000
0$
1#
09
18
1J
0G
1H
0K
0L
0O
0C
1B
1P
1L
1O
0@
1A
1C
1D
0P
1,
0+
1@
1?
0D
1+
1*
0?
0*
#950000
1$
19
1G
0H
1K
0B
0L
0O
0A
0C
1P
0,
0@
1D
0+
1?
1*
#960000
0$
0#
0"
0!
0(
1'
09
08
07
06
0=
1<
1I
0F
0R
0N
0J
0G
0P
1T
0K
1E
0D
1L
1O
1>
0?
1C
1P
0S
0*
1)
1@
1D
0T
1+
1?
0E
1*
0>
0)
#970000
1$
19
1G
1H
1B
1A
1,
#980000
0$
1#
09
18
1J
0G
0H
0L
0O
0C
0B
0P
1S
0@
0A
0D
1T
0,
0+
0?
1E
0*
1>
1)
#990000
1$
19
1G
1H
1B
1A
1,
